{"bmaster":4,"recordsTotal":195484,"recordsFiltered":195484,"data":[{"id":198432,"name":"YOGAPRIYA S","entity":"Individual","company":"","gstin":"-","mobile":"-","email":"yogapriya@indiafilings.com","added_on":"05-02-2022","status":"1","reg_type":"Regular","customer_gid":205520303,"state":"TAMIL NADU","city":"","country":"INDIA","pan":"-","tan":"-","ecomm_gstin":"-"},{"id":198431,"name":"YOGAPRIYA S","entity":"Individual","company":"","gstin":"-","mobile":"-","email":"yogapriyas@indiafilings.com","added_on":"05-02-2022","status":"1","reg_type":"Regular","customer_gid":205520303,"state":"TAMIL NADU","city":"","country":"INDIA","pan":"-","tan":"-","ecomm_gstin":"-"},{"id":198430,"name":"testforrrsdsdd","entity":"Individual","company":"","gstin":"-","mobile":"996363225","email":"t1@verveindia.com","added_on":"05-02-2022","status":"1","reg_type":"Regular","customer_gid":1330502314,"state":"TAMIL NADU","city":"","country":"INDIA","pan":"-","tan":"-","ecomm_gstin":"-"},{"id":198397,"name":"Gajanan Brahmane","entity":"Individual","company":"","gstin":"-","mobile":"7024264942","email":"gajananbrahmane3430@gmail.com","added_on":"21-09-2021","status":"1","reg_type":"Regular","customer_gid":1211633665,"state":"TAMIL NADU","city":"","country":"INDIA","pan":"-","tan":"-","ecomm_gstin":"-"},{"id":198396,"name":"Toluram somla chavan","entity":"Individual","company":"","gstin":"-","mobile":"9632139383","email":"tolaramchavan2077@gmail.com","added_on":"20-09-2021","status":"1","reg_type":"Regular","customer_gid":1211607468,"state":"TAMIL NADU","city":"","country":"INDIA","pan":"-","tan":"-","ecomm_gstin":"-"},{"id":198395,"name":"Dhriti electrical ","entity":"Individual","company":"","gstin":"-","mobile":"7987557344","email":"dhriti.elecricals04@gmail.com","added_on":"20-09-2021","status":"1","reg_type":"Regular","customer_gid":1211599949,"state":"TAMIL NADU","city":"","country":"INDIA","pan":"-","tan":"-","ecomm_gstin":"-"},{"id":198394,"name":"MD TAHZEEB","entity":"Individual","company":"","gstin":"-","mobile":"9004945190","email":"mdtahzeebmasbahi@gmail.com","added_on":"20-09-2021","status":"1","reg_type":"Regular","customer_gid":1211599300,"state":"TAMIL NADU","city":"","country":"INDIA","pan":"-","tan":"-","ecomm_gstin":"-"},{"id":198393,"name":"Bhavna Bhalchandra Khot","entity":"Individual","company":"","gstin":"-","mobile":"8356962236","email":"bk06061975@gmail.com","added_on":"20-09-2021","status":"1","reg_type":"Regular","customer_gid":1211593671,"state":"TAMIL NADU","city":"","country":"INDIA","pan":"-","tan":"-","ecomm_gstin":"-"},{"id":198392,"name":"Rahul rathore","entity":"Individual","company":"","gstin":"-","mobile":"-","email":"rahulrathore7200@gmail.com","added_on":"20-09-2021","status":"1","reg_type":"Regular","customer_gid":1211588831,"state":"TAMIL NADU","city":"","country":"INDIA","pan":"-","tan":"-","ecomm_gstin":"-"},{"id":198391,"name":"Mithlesh Harode","entity":"Individual","company":"","gstin":"-","mobile":"9399032018","email":"mithleshharode1997@gmail.com","added_on":"20-09-2021","status":"1","reg_type":"Regular","customer_gid":1211588031,"state":"TAMIL NADU","city":"","country":"INDIA","pan":"-","tan":"-","ecomm_gstin":"-"}],"meta":{"total":195484,"pages":19549,"perpage":10,"page":1}}