{"recordsTotal":2164,"recordsFiltered":2132,"data":[{"id":78694,"gid":1231027152,"gbid":10653721,"uid":0,"bmaster":4,"title":"","name":"akash b","designation":"accountant","user_level":"Sales Terminal","email":"akashb@indiafilings.com","mobile":"","phone":"","type":0,"added_by":"MOHAMMED AZHARUDDIN.N","added_on":"13-10-2021","lastlogin":"13-10-2021 10:55:16","mail_verify":0,"two_factor":"","verifiy_2fa":0,"updated_by":0,"updated_on":null,"status":1,"expiry":null,"banking_access":"{}","created_ip":"13.234.170.37","updated_ip":"","android_app":0,"added_by_gid":638282845},{"id":78693,"gid":1231009862,"gbid":10653721,"uid":0,"bmaster":4,"title":"","name":"bharath kumar k","designation":"business advisor","user_level":"Sales Terminal","email":"bharathkumark@indiafilings.com","mobile":"","phone":"","type":0,"added_by":"MOHAMMED AZHARUDDIN.N","added_on":"13-10-2021","lastlogin":"13-10-2021 10:26:27","mail_verify":0,"two_factor":"","verifiy_2fa":0,"updated_by":0,"updated_on":null,"status":1,"expiry":null,"banking_access":"{}","created_ip":"13.234.170.37","updated_ip":"","android_app":0,"added_by_gid":638282845},{"id":78691,"gid":1230155319,"gbid":10653721,"uid":0,"bmaster":4,"title":"","name":"puja brahma","designation":"accountant","user_level":"Sales Terminal","email":"pujabrahma@indiafilings.com","mobile":"","phone":"","type":0,"added_by":"NITHYA M","added_on":"12-10-2021","lastlogin":"12-10-2021 10:42:13","mail_verify":0,"two_factor":"","verifiy_2fa":0,"updated_by":0,"updated_on":null,"status":1,"expiry":null,"banking_access":"{}","created_ip":"13.234.170.37","updated_ip":"","android_app":0,"added_by_gid":208036469},{"id":78690,"gid":1230123449,"gbid":10653721,"uid":0,"bmaster":4,"title":"","name":"more gaurav manohar","designation":"business advisor","user_level":"Sales Terminal","email":"gauravmore@indiafilings.com","mobile":"","phone":"","type":0,"added_by":"NITHYA M","added_on":"12-10-2021","lastlogin":"12-10-2021 09:49:06","mail_verify":0,"two_factor":"","verifiy_2fa":0,"updated_by":0,"updated_on":null,"status":1,"expiry":null,"banking_access":"{}","created_ip":"13.234.170.37","updated_ip":"","android_app":0,"added_by_gid":208036469},{"id":78685,"gid":1229265669,"gbid":10653721,"uid":0,"bmaster":4,"title":"","name":"gavade ajay anant","designation":"associate","user_level":"Sales Terminal","email":"ajaygavade@indiafilings.com","mobile":"","phone":"","type":0,"added_by":"NITHYA M","added_on":"11-10-2021","lastlogin":"11-10-2021 09:59:27","mail_verify":0,"two_factor":"","verifiy_2fa":0,"updated_by":0,"updated_on":null,"status":1,"expiry":null,"banking_access":"{}","created_ip":"13.234.170.37","updated_ip":"","android_app":0,"added_by_gid":208036469},{"id":78684,"gid":1229253156,"gbid":10653721,"uid":0,"bmaster":4,"title":"","name":"j.n.johan prisley","designation":"ip lawyer","user_level":"Sales Terminal","email":"johanprisley@indiafilings.com","mobile":"","phone":"","type":0,"added_by":"MOHAMMED AZHARUDDIN.N","added_on":"11-10-2021","lastlogin":"11-10-2021 09:38:36","mail_verify":0,"two_factor":"","verifiy_2fa":0,"updated_by":0,"updated_on":null,"status":1,"expiry":null,"banking_access":"{}","created_ip":"13.234.170.37","updated_ip":"","android_app":0,"added_by_gid":638282845},{"id":78683,"gid":1229252299,"gbid":10653721,"uid":0,"bmaster":4,"title":"","name":"vishwakarma neha gautam","designation":"business advisor","user_level":"Sales Terminal","email":"nehavishwakarma@indiafilings.com","mobile":"","phone":"","type":0,"added_by":"NITHYA M","added_on":"11-10-2021","lastlogin":"11-10-2021 09:37:11","mail_verify":0,"two_factor":"","verifiy_2fa":0,"updated_by":0,"updated_on":null,"status":1,"expiry":null,"banking_access":"{}","created_ip":"13.234.170.37","updated_ip":"","android_app":0,"added_by_gid":208036469},{"id":78682,"gid":1229243307,"gbid":10653721,"uid":0,"bmaster":4,"title":"","name":"jadhav priyanka dilip","designation":"accountant","user_level":"Sales Terminal","email":"priyankajadhav@indiafilings.com","mobile":"","phone":"","type":0,"added_by":"NITHYA M","added_on":"11-10-2021","lastlogin":"11-10-2021 09:22:11","mail_verify":0,"two_factor":"","verifiy_2fa":0,"updated_by":0,"updated_on":null,"status":1,"expiry":null,"banking_access":"{}","created_ip":"13.234.170.37","updated_ip":"","android_app":0,"added_by_gid":208036469},{"id":78652,"gid":1226946385,"gbid":10653721,"uid":0,"bmaster":4,"title":"","name":"jai charan k","designation":"mca filing expert","user_level":"Sales Terminal","email":"jaicharan@indiafilings.com","mobile":"","phone":"","type":0,"added_by":"NITHYA M","added_on":"08-10-2021","lastlogin":"08-10-2021 17:33:59","mail_verify":0,"two_factor":"","verifiy_2fa":0,"updated_by":0,"updated_on":null,"status":1,"expiry":null,"banking_access":"{}","created_ip":"13.234.170.37","updated_ip":"","android_app":0,"added_by_gid":208036469},{"id":78649,"gid":1226697411,"gbid":10653721,"uid":0,"bmaster":4,"title":"","name":"lakshmi durga v","designation":"receptionist","user_level":"Sales Terminal","email":"lakshmidurga@indiafilings.com","mobile":"","phone":"","type":0,"added_by":"NITHYA M","added_on":"08-10-2021","lastlogin":"08-10-2021 10:39:02","mail_verify":0,"two_factor":"","verifiy_2fa":0,"updated_by":0,"updated_on":null,"status":1,"expiry":null,"banking_access":"{}","created_ip":"13.234.170.37","updated_ip":"","android_app":0,"added_by_gid":208036469}],"meta":{"total":2132,"pages":214,"perpage":10,"page":1}}